<svg width="38" height="40" viewBox="0 0 38 40" fill="none" xmlns="http://www.w3.org/2000/svg">
<ellipse cx="19" cy="19.75" rx="19" ry="19.75" fill="#FF6B00"/>
<path d="M23.34 9.5C26.73 9.5 29 11.879 29 15.419V23.589C29 27.12 26.73 29.5 23.34 29.5H14.67C11.28 29.5 9 27.12 9 23.589V15.419C9 11.879 11.28 9.5 14.67 9.5H23.34ZM18.65 14.419C18.24 14.419 17.9 14.76 17.9 15.169V20.22C17.9 20.48 18.04 20.73 18.27 20.86L22.19 23.2C22.31 23.28 22.45 23.31 22.58 23.31C22.83 23.31 23.08 23.18 23.22 22.94C23.44 22.589 23.32 22.129 22.96 21.91L19.4 19.79V15.169C19.4 14.76 19.07 14.419 18.65 14.419Z" fill="white"/>
</svg>
